{
  "user_address": "127.0.0.1:50054",
  "raft_address": "127.0.0.1:50054",
  "worker_address": "127.0.0.1:50054",
  "peers": [
    "127.0.0.1:50050",
    "127.0.0.1:50051",
    "127.0.0.1:50052",
    "127.0.0.1:50053",
    "127.0.0.1:50054"
  ],
  "snapshot_after": 10,
  "snapshot_to": "./build/snapshots/snapshot_4.sp"
}